                                     | Core 0     | Core 1    
  Instructions                       |    4358263 |    4738053
  Cycles                             |    6881173 |    6881173
  IPC                                |       0.63 |       0.69
  Time (ns)                          |    2586908 |    2586908
  Idle time (ns)                     |     147978 |       4045
  Idle time (%)                      |       5.7% |       0.2%
Branch predictor stats               |            |           
  num correct                        |     603297 |     666601
  num incorrect                      |         89 |         87
  misprediction rate                 |      0.01% |      0.01%
  mpki                               |       0.02 |       0.02
TLB Summary                          |            |           
Cache Summary                        |            |           
  Cache L1-I                         |            |           
    num cache accesses               |    1012766 |    1139370
    num cache misses                 |         17 |         16
    miss rate                        |      0.00% |      0.00%
    mpki                             |       0.00 |       0.00
  Cache L1-D                         |            |           
    num cache accesses               |    2433164 |    2623067
    num cache misses                 |       6097 |       6081
    miss rate                        |      0.25% |      0.23%
    mpki                             |       1.40 |       1.28
  Cache L2                           |            |           
    num cache accesses               |       6267 |       6266
    num cache misses                 |         19 |         12
    miss rate                        |      0.30% |      0.19%
    mpki                             |       0.00 |       0.00
  Cache L3                           |            |           
    num cache accesses               |         20 |         14
    num cache misses                 |         19 |         12
    miss rate                        |     95.00% |     85.71%
    mpki                             |       0.00 |       0.00
DRAM summary                         |            |           
  num dram accesses                  |         29 |          0
  average dram access latency (ns)   |      88.55 |        inf
  average dram queueing delay        |      35.12 |       0.00
  average dram bandwidth utilization |      0.00% |      0.00%
Coherency Traffic                    |            |           
  num loads from dram                |          3 |          4
  num loads from dram cache          |          0 |          0
  num loads from remote cache        |          0 |          0
