--------
Total Statistics
--------
Total Instructions: 10887615013
Total Cycles: 21827571733
IPC: 0.498801

--------
Single level Tlb hierarchy
--------
  Data Tlb:
    Entries:           8
    Page Size(B):   4096
    Associativity:      4

Latencies:    0  100
Tlb-Sets:    2 - LRU - assoc:   4

Tlb Stats:
Tlb-Load-Hits:        2237699292   97.42%
Tlb-Load-Misses:        59320158    2.58%
Tlb-Load-Accesses:    2297019450  100.00%

Tlb-Store-Hits:         591584869   99.90%
Tlb-Store-Misses:          620951    0.10%
Tlb-Store-Accesses:     592205820  100.00%

Tlb-Total-Hits:        2829284161   97.93%
Tlb-Total-Misses:        59941109    2.07%
Tlb-Total-Accesses:    2889225270  100.00%



--------
Two level Cache hierarchy
--------
  L1-Data Cache:
    Size(KB):          32
    Block Size(B):     64
    Associativity:      8

  L2-Data Cache:
    Size(KB):        1024
    Block Size(B):    128
    Associativity:      8

Latencies:    1   15  250
L1-Sets:   64 - LRU - assoc:   8
L2-Sets: 1024 - LRU - assoc:   8
Store_allocation: Yes
L2_inclusive: Yes
L2_prefetching: No

L1 Cache Stats:
L1-Load-Hits:        2184484390   95.10%
L1-Load-Misses:       112535060    4.90%
L1-Load-Accesses:    2297019450  100.00%

L1-Store-Hits:         585715110   98.90%
L1-Store-Misses:         6490710    1.10%
L1-Store-Accesses:     592205820  100.00%

L1-Total-Hits:        2770199500   95.88%
L1-Total-Misses:       119025770    4.12%
L1-Total-Accesses:    2889225270  100.00%

L2 Cache Stats:
L2-Load-Hits:         111950648   99.48%
L2-Load-Misses:          584412    0.52%
L2-Load-Accesses:     112535060  100.00%

L2-Store-Hits:           5990186   92.29%
L2-Store-Misses:          500524    7.71%
L2-Store-Accesses:       6490710  100.00%

L2-Total-Hits:         117940834   99.09%
L2-Total-Misses:         1084936    0.91%
L2-Total-Accesses:     119025770  100.00%

