--------
Total Statistics
--------
Total Instructions: 23190012046
Total Cycles: 50039580779
IPC: 0.463433

--------
Single level Tlb hierarchy
--------
  Data Tlb:
    Entries:          64
    Page Size(B):   4096
    Associativity:     16

Latencies:    0  100
Tlb-Sets:    4 - LRU - assoc:  16

Tlb Stats:
Tlb-Load-Hits:        6515850085   99.65%
Tlb-Load-Misses:        23197894    0.35%
Tlb-Load-Accesses:    6539047979  100.00%

Tlb-Store-Hits:        1319645978   99.96%
Tlb-Store-Misses:          500101    0.04%
Tlb-Store-Accesses:    1320146079  100.00%

Tlb-Total-Hits:        7835496063   99.70%
Tlb-Total-Misses:        23697995    0.30%
Tlb-Total-Accesses:    7859194058  100.00%



--------
Two level Cache hierarchy
--------
  L1-Data Cache:
    Size(KB):          32
    Block Size(B):     64
    Associativity:      8

  L2-Data Cache:
    Size(KB):        1024
    Block Size(B):    128
    Associativity:      8

Latencies:    1   15  250
L1-Sets:   64 - LRU - assoc:   8
L2-Sets: 1024 - LRU - assoc:   8
Store_allocation: Yes
L2_inclusive: Yes
L2_prefetching: No

L1 Cache Stats:
L1-Load-Hits:        6371462368   97.44%
L1-Load-Misses:       167585611    2.56%
L1-Load-Accesses:    6539047979  100.00%

L1-Store-Hits:        1215538295   92.08%
L1-Store-Misses:       104607784    7.92%
L1-Store-Accesses:    1320146079  100.00%

L1-Total-Hits:        7587000663   96.54%
L1-Total-Misses:       272193395    3.46%
L1-Total-Accesses:    7859194058  100.00%

L2 Cache Stats:
L2-Load-Hits:         121571370   72.54%
L2-Load-Misses:        46014241   27.46%
L2-Load-Accesses:     167585611  100.00%

L2-Store-Hits:         100471328   96.05%
L2-Store-Misses:         4136456    3.95%
L2-Store-Accesses:     104607784  100.00%

L2-Total-Hits:         222042698   81.58%
L2-Total-Misses:        50150697   18.42%
L2-Total-Accesses:     272193395  100.00%

