--------
Total Statistics
--------
Total Instructions: 23190013481
Total Cycles: 49812982894
IPC: 0.465542

--------
Single level Tlb hierarchy
--------
  Data Tlb:
    Entries:         256
    Page Size(B):   4096
    Associativity:      4

Latencies:    0  100
Tlb-Sets:   64 - LRU - assoc:   4

Tlb Stats:
Tlb-Load-Hits:        6518043809   99.68%
Tlb-Load-Misses:        21004170    0.32%
Tlb-Load-Accesses:    6539047979  100.00%

Tlb-Store-Hits:        1319965541   99.99%
Tlb-Store-Misses:          181358    0.01%
Tlb-Store-Accesses:    1320146899  100.00%

Tlb-Total-Hits:        7838009350   99.73%
Tlb-Total-Misses:        21185528    0.27%
Tlb-Total-Accesses:    7859194878  100.00%



--------
Two level Cache hierarchy
--------
  L1-Data Cache:
    Size(KB):          32
    Block Size(B):     64
    Associativity:      8

  L2-Data Cache:
    Size(KB):        1024
    Block Size(B):    128
    Associativity:      8

Latencies:    1   15  250
L1-Sets:   64 - LRU - assoc:   8
L2-Sets: 1024 - LRU - assoc:   8
Store_allocation: Yes
L2_inclusive: Yes
L2_prefetching: No

L1 Cache Stats:
L1-Load-Hits:        6370315527   97.42%
L1-Load-Misses:       168732452    2.58%
L1-Load-Accesses:    6539047979  100.00%

L1-Store-Hits:        1215262452   92.06%
L1-Store-Misses:       104884447    7.94%
L1-Store-Accesses:    1320146899  100.00%

L1-Total-Hits:        7585577979   96.52%
L1-Total-Misses:       273616899    3.48%
L1-Total-Accesses:    7859194878  100.00%

L2 Cache Stats:
L2-Load-Hits:         122703689   72.72%
L2-Load-Misses:        46028763   27.28%
L2-Load-Accesses:     168732452  100.00%

L2-Store-Hits:         100749337   96.06%
L2-Store-Misses:         4135110    3.94%
L2-Store-Accesses:     104884447  100.00%

L2-Total-Hits:         223453026   81.67%
L2-Total-Misses:        50163873   18.33%
L2-Total-Accesses:     273616899  100.00%

