--------
Total Statistics
--------
Total Instructions: 31839034711
Total Cycles: 49606316372
IPC: 0.641834

--------
Single level Tlb hierarchy
--------
  Data Tlb:
    Entries:         256
    Page Size(B):   4096
    Associativity:      4

Latencies:    0  100
Tlb-Sets:   64 - LRU - assoc:   4

Tlb Stats:
Tlb-Load-Hits:        9269652268   99.96%
Tlb-Load-Misses:         4083470    0.04%
Tlb-Load-Accesses:    9273735738  100.00%

Tlb-Store-Hits:        4838099931   99.95%
Tlb-Store-Misses:         2423107    0.05%
Tlb-Store-Accesses:    4840523038  100.00%

Tlb-Total-Hits:       14107752199   99.95%
Tlb-Total-Misses:         6506577    0.05%
Tlb-Total-Accesses:   14114258776  100.00%



--------
Two level Cache hierarchy
--------
  L1-Data Cache:
    Size(KB):          32
    Block Size(B):     64
    Associativity:      8

  L2-Data Cache:
    Size(KB):        1024
    Block Size(B):    128
    Associativity:      8

Latencies:    1   15  250
L1-Sets:   64 - LRU - assoc:   8
L2-Sets: 1024 - LRU - assoc:   8
Store_allocation: Yes
L2_inclusive: Yes
L2_prefetching: No

L1 Cache Stats:
L1-Load-Hits:        9223633428   99.46%
L1-Load-Misses:        50102310    0.54%
L1-Load-Accesses:    9273735738  100.00%

L1-Store-Hits:        4830313069   99.79%
L1-Store-Misses:        10209969    0.21%
L1-Store-Accesses:    4840523038  100.00%

L1-Total-Hits:       14053946497   99.57%
L1-Total-Misses:        60312279    0.43%
L1-Total-Accesses:   14114258776  100.00%

L2 Cache Stats:
L2-Load-Hits:          43980823   87.78%
L2-Load-Misses:         6121487   12.22%
L2-Load-Accesses:      50102310  100.00%

L2-Store-Hits:           7940732   77.77%
L2-Store-Misses:         2269237   22.23%
L2-Store-Accesses:      10209969  100.00%

L2-Total-Hits:          51921555   86.09%
L2-Total-Misses:         8390724   13.91%
L2-Total-Accesses:      60312279  100.00%

