--------
Total Statistics
--------
Total Instructions: 31839034711
Total Cycles: 54854070262
IPC: 0.580432

--------
Single level Tlb hierarchy
--------
  Data Tlb:
    Entries:          32
    Page Size(B):   4096
    Associativity:      4

Latencies:    0  100
Tlb-Sets:    8 - LRU - assoc:   4

Tlb Stats:
Tlb-Load-Hits:        9229680286   99.52%
Tlb-Load-Misses:        44055452    0.48%
Tlb-Load-Accesses:    9273735738  100.00%

Tlb-Store-Hits:        4825579460   99.69%
Tlb-Store-Misses:        14943578    0.31%
Tlb-Store-Accesses:    4840523038  100.00%

Tlb-Total-Hits:       14055259746   99.58%
Tlb-Total-Misses:        58999030    0.42%
Tlb-Total-Accesses:   14114258776  100.00%



--------
Two level Cache hierarchy
--------
  L1-Data Cache:
    Size(KB):          32
    Block Size(B):     64
    Associativity:      8

  L2-Data Cache:
    Size(KB):        1024
    Block Size(B):    128
    Associativity:      8

Latencies:    1   15  250
L1-Sets:   64 - LRU - assoc:   8
L2-Sets: 1024 - LRU - assoc:   8
Store_allocation: Yes
L2_inclusive: Yes
L2_prefetching: No

L1 Cache Stats:
L1-Load-Hits:        9223657796   99.46%
L1-Load-Misses:        50077942    0.54%
L1-Load-Accesses:    9273735738  100.00%

L1-Store-Hits:        4830313895   99.79%
L1-Store-Misses:        10209143    0.21%
L1-Store-Accesses:    4840523038  100.00%

L1-Total-Hits:       14053971691   99.57%
L1-Total-Misses:        60287085    0.43%
L1-Total-Accesses:   14114258776  100.00%

L2 Cache Stats:
L2-Load-Hits:          43960356   87.78%
L2-Load-Misses:         6117586   12.22%
L2-Load-Accesses:      50077942  100.00%

L2-Store-Hits:           7940459   77.78%
L2-Store-Misses:         2268684   22.22%
L2-Store-Accesses:      10209143  100.00%

L2-Total-Hits:          51900815   86.09%
L2-Total-Misses:         8386270   13.91%
L2-Total-Accesses:      60287085  100.00%

