--------
Total Statistics
--------
Total Instructions: 6594161979
Total Cycles: 9184500260
IPC: 0.717966

--------
Single level Tlb hierarchy
--------
  Data Tlb:
    Entries:          64
    Page Size(B):   4096
    Associativity:     32

Latencies:    0  100
Tlb-Sets:    2 - LRU - assoc:  32

Tlb Stats:
Tlb-Load-Hits:        1667364318   99.97%
Tlb-Load-Misses:          467072    0.03%
Tlb-Load-Accesses:    1667831390  100.00%

Tlb-Store-Hits:         565370301   99.99%
Tlb-Store-Misses:           62145    0.01%
Tlb-Store-Accesses:     565432446  100.00%

Tlb-Total-Hits:        2232734619   99.98%
Tlb-Total-Misses:          529217    0.02%
Tlb-Total-Accesses:    2233263836  100.00%



--------
Two level Cache hierarchy
--------
  L1-Data Cache:
    Size(KB):          32
    Block Size(B):     64
    Associativity:      8

  L2-Data Cache:
    Size(KB):        1024
    Block Size(B):    128
    Associativity:      8

Latencies:    1   15  250
L1-Sets:   64 - LRU - assoc:   8
L2-Sets: 1024 - LRU - assoc:   8
Store_allocation: Yes
L2_inclusive: Yes
L2_prefetching: No

L1 Cache Stats:
L1-Load-Hits:        1664276286   99.79%
L1-Load-Misses:         3555104    0.21%
L1-Load-Accesses:    1667831390  100.00%

L1-Store-Hits:         564816017   99.89%
L1-Store-Misses:          616429    0.11%
L1-Store-Accesses:     565432446  100.00%

L1-Total-Hits:        2229092303   99.81%
L1-Total-Misses:         4171533    0.19%
L1-Total-Accesses:    2233263836  100.00%

L2 Cache Stats:
L2-Load-Hits:           2783925   78.31%
L2-Load-Misses:          771179   21.69%
L2-Load-Accesses:       3555104  100.00%

L2-Store-Hits:            421289   68.34%
L2-Store-Misses:          195140   31.66%
L2-Store-Accesses:        616429  100.00%

L2-Total-Hits:           3205214   76.84%
L2-Total-Misses:          966319   23.16%
L2-Total-Accesses:       4171533  100.00%

