                                     | Core 0    
  Instructions                       |      14019
  Cycles                             |      47614
  IPC                                |       0.29
  Time (ns)                          |      17900
  Idle time (ns)                     |         -3
  Idle time (%)                      |      -0.0%
Branch predictor stats               |           
  num correct                        |       2352
  num incorrect                      |        177
  misprediction rate                 |      7.00%
  mpki                               |      12.63
TLB Summary                          |           
  I-TLB                              |           
    num accesses                     |       2270
    num misses                       |         24
    miss rate                        |      1.06%
    mpki                             |       1.71
  D-TLB                              |           
    num accesses                     |       6223
    num misses                       |        322
    miss rate                        |      5.17%
    mpki                             |      22.97
  L2 TLB                             |           
    num accesses                     |        346
    num misses                       |        153
    miss rate                        |     44.22%
    mpki                             |      10.91
Cache Summary                        |           
  Cache L1-I                         |           
    num cache accesses               |       2270
    num cache misses                 |         78
    miss rate                        |      3.44%
    mpki                             |       5.56
  Cache L1-D                         |           
    num cache accesses               |       6223
    num cache misses                 |        449
    miss rate                        |      7.22%
    mpki                             |      32.03
  Cache L2                           |           
    num cache accesses               |        646
    num cache misses                 |        527
    miss rate                        |     81.58%
    mpki                             |      37.59
  Cache L3                           |           
    num cache accesses               |        646
    num cache misses                 |        527
    miss rate                        |     81.58%
    mpki                             |      37.59
DRAM summary                         |           
  num dram accesses                  |        527
  average dram access latency (ns)   |      80.05
  average dram queueing delay        |      26.62
  average dram bandwidth utilization |     24.00%
Coherency Traffic                    |           
  num loads from dram                |        373
  num loads from dram cache          |          0
  num loads from remote cache        |          0
