                     Power     Energy    Energy %
  core-core       8785.14 W     1.42  J     98.36%
  core-ifetch     110.74 W     0.02  J      1.24%
  core-alu          0.62 W     0.10 mJ      0.01%
  core-int          6.65 W     1.07 mJ      0.07%
  core-fp           1.59 W     0.26 mJ      0.02%
  core-mem          3.29 W     0.53 mJ      0.04%
  core-other        3.14 W     0.51 mJ      0.04%
  icache            5.70 W     0.92 mJ      0.06%
  dcache            5.84 W     0.94 mJ      0.07%
  l2                0.98 W     0.16 mJ      0.01%
  l3                3.37 W     0.54 mJ      0.04%
  nuca              0.00 W     0.00  J      0.00%
  noc               0.15 W     0.02 mJ      0.00%
  dram              4.27 W     0.69 mJ      0.05%

  core            8911.17 W     1.44  J     99.77%
  cache            15.89 W     2.56 mJ      0.18%
  total           8931.48 W     1.44  J    100.00%
