                                     | Core 0    
  Instructions                       |      73036
  Cycles                             |      39632
  IPC                                |       1.84
  Time (ns)                          |      14900
  Idle time (ns)                     |       2264
  Idle time (%)                      |      15.2%
Branch predictor stats               |           
  num correct                        |       5009
  num incorrect                      |          5
  misprediction rate                 |      0.10%
  mpki                               |       0.07
TLB Summary                          |           
Cache Summary                        |           
  Cache L1-I                         |           
    num cache accesses               |      14018
    num cache misses                 |         15
    miss rate                        |      0.11%
    mpki                             |       0.21
  Cache L1-D                         |           
    num cache accesses               |      43049
    num cache misses                 |          8
    miss rate                        |      0.02%
    mpki                             |       0.11
  Cache L2                           |           
    num cache accesses               |         24
    num cache misses                 |         23
    miss rate                        |     95.83%
    mpki                             |       0.31
  Cache L3                           |           
    num cache accesses               |         24
    num cache misses                 |         23
    miss rate                        |     95.83%
    mpki                             |       0.31
DRAM summary                         |           
  num dram accesses                  |         23
  average dram access latency (ns)   |     130.39
  average dram queueing delay        |      76.96
  average dram bandwidth utilization |      1.00%
Coherency Traffic                    |           
  num loads from dram                |          5
  num loads from dram cache          |          0
  num loads from remote cache        |          0
