ERROR: Thread 0 dying after unexpected exception @icount: 140748155 PC 0x0004f4777

see /home/mike/arch/3rd_Assignment/outputs/gobmk/gobmk.DW_04-WS_192.out/pinball_replay.app0.txt for more details. Exiting...
[RECORD-TRACE] Using the Pin frontend (sift/recorder)
