ERROR: Thread 0 dying after unexpected exception @icount: 890240343 PC 0x0004c1757

see /home/mike/arch/3rd_Assignment/outputs/GemsFDTD/GemsFDTD.DW_02-WS_128.out/pinball_replay.app0.txt for more details. Exiting...
[RECORD-TRACE] Using the Pin frontend (sift/recorder)
