--------
Total Statistics
--------
Total Instructions: 2209873900
Total Cycles: 6883796319
IPC: 0.321025

--------
Single level Tlb hierarchy
--------
  Data Tlb:
    Entries:          64
    Page Size(B):   4096
    Associativity:      4

Latencies:    0  100
Tlb-Sets:   16 - LRU - assoc:   4

Tlb Stats:
Tlb-Load-Hits:         563280659   94.18%
Tlb-Load-Misses:        34832741    5.82%
Tlb-Load-Accesses:     598113400  100.00%

Tlb-Store-Hits:         126178937   99.67%
Tlb-Store-Misses:          421502    0.33%
Tlb-Store-Accesses:     126600439  100.00%

Tlb-Total-Hits:         689459596   95.14%
Tlb-Total-Misses:        35254243    4.86%
Tlb-Total-Accesses:     724713839  100.00%



--------
Two level Cache hierarchy
--------
  L1-Data Cache:
    Size(KB):          32
    Block Size(B):     64
    Associativity:      8

  L2-Data Cache:
    Size(KB):        1024
    Block Size(B):    128
    Associativity:      8

Latencies:    1   15  250
L1-Sets:   64 - LRU - assoc:   8
L2-Sets: 1024 - LRU - assoc:   8
Store_allocation: Yes
L2_inclusive: Yes
L2_prefetching: No

L1 Cache Stats:
L1-Load-Hits:         594390530   99.38%
L1-Load-Misses:         3722870    0.62%
L1-Load-Accesses:     598113400  100.00%

L1-Store-Hits:         125987157   99.52%
L1-Store-Misses:          613282    0.48%
L1-Store-Accesses:     126600439  100.00%

L1-Total-Hits:         720377687   99.40%
L1-Total-Misses:         4336152    0.60%
L1-Total-Accesses:     724713839  100.00%

L2 Cache Stats:
L2-Load-Hits:           2492812   66.96%
L2-Load-Misses:         1230058   33.04%
L2-Load-Accesses:       3722870  100.00%

L2-Store-Hits:            408372   66.59%
L2-Store-Misses:          204910   33.41%
L2-Store-Accesses:        613282  100.00%

L2-Total-Hits:           2901184   66.91%
L2-Total-Misses:         1434968   33.09%
L2-Total-Accesses:       4336152  100.00%

