--------
Total Statistics
--------
Total Instructions: 2209873900
Total Cycles: 6884377304
IPC: 0.320998

--------
Single level Tlb hierarchy
--------
  Data Tlb:
    Entries:          64
    Page Size(B):   4096
    Associativity:      4

Latencies:    0  100
Tlb-Sets:   16 - LRU - assoc:   4

Tlb Stats:
Tlb-Load-Hits:         563280661   94.18%
Tlb-Load-Misses:        34832739    5.82%
Tlb-Load-Accesses:     598113400  100.00%

Tlb-Store-Hits:         126178936   99.67%
Tlb-Store-Misses:          421503    0.33%
Tlb-Store-Accesses:     126600439  100.00%

Tlb-Total-Hits:         689459597   95.14%
Tlb-Total-Misses:        35254242    4.86%
Tlb-Total-Accesses:     724713839  100.00%



--------
Two level Cache hierarchy
--------
  L1-Data Cache:
    Size(KB):          32
    Block Size(B):     64
    Associativity:      8

  L2-Data Cache:
    Size(KB):         512
    Block Size(B):    128
    Associativity:      8

Latencies:    1   15  250
L1-Sets:   64 - LRU - assoc:   8
L2-Sets:  512 - LRU - assoc:   8
Store_allocation: Yes
L2_inclusive: Yes
L2_prefetching: No

L1 Cache Stats:
L1-Load-Hits:         594385959   99.38%
L1-Load-Misses:         3727441    0.62%
L1-Load-Accesses:     598113400  100.00%

L1-Store-Hits:         125972989   99.50%
L1-Store-Misses:          627450    0.50%
L1-Store-Accesses:     126600439  100.00%

L1-Total-Hits:         720358948   99.40%
L1-Total-Misses:         4354891    0.60%
L1-Total-Accesses:     724713839  100.00%

L2 Cache Stats:
L2-Load-Hits:           2496183   66.97%
L2-Load-Misses:         1231258   33.03%
L2-Load-Accesses:       3727441  100.00%

L2-Store-Hits:            422540   67.34%
L2-Store-Misses:          204910   32.66%
L2-Store-Accesses:        627450  100.00%

L2-Total-Hits:           2918723   67.02%
L2-Total-Misses:         1436168   32.98%
L2-Total-Accesses:       4354891  100.00%

