--------
Total Statistics
--------
Total Instructions: 2209873925
Total Cycles: 6693981727
IPC: 0.330128

--------
Single level Tlb hierarchy
--------
  Data Tlb:
    Entries:          64
    Page Size(B):   4096
    Associativity:      4

Latencies:    0  100
Tlb-Sets:   16 - LRU - assoc:   4

Tlb Stats:
Tlb-Load-Hits:         563280668   94.18%
Tlb-Load-Misses:        34832740    5.82%
Tlb-Load-Accesses:     598113408  100.00%

Tlb-Store-Hits:         126179037   99.67%
Tlb-Store-Misses:          421402    0.33%
Tlb-Store-Accesses:     126600439  100.00%

Tlb-Total-Hits:         689459705   95.14%
Tlb-Total-Misses:        35254142    4.86%
Tlb-Total-Accesses:     724713847  100.00%



--------
Two level Cache hierarchy
--------
  L1-Data Cache:
    Size(KB):          32
    Block Size(B):     64
    Associativity:      8

  L2-Data Cache:
    Size(KB):        1024
    Block Size(B):    256
    Associativity:      8

Latencies:    1   15  250
L1-Sets:   64 - LRU - assoc:   8
L2-Sets:  512 - LRU - assoc:   8
Store_allocation: Yes
L2_inclusive: Yes
L2_prefetching: No

L1 Cache Stats:
L1-Load-Hits:         594993223   99.48%
L1-Load-Misses:         3120185    0.52%
L1-Load-Accesses:     598113408  100.00%

L1-Store-Hits:         126076307   99.59%
L1-Store-Misses:          524132    0.41%
L1-Store-Accesses:     126600439  100.00%

L1-Total-Hits:         721069530   99.50%
L1-Total-Misses:         3644317    0.50%
L1-Total-Accesses:     724713847  100.00%

L2 Cache Stats:
L2-Load-Hits:           2505431   80.30%
L2-Load-Misses:          614754   19.70%
L2-Load-Accesses:       3120185  100.00%

L2-Store-Hits:            421626   80.44%
L2-Store-Misses:          102506   19.56%
L2-Store-Accesses:        524132  100.00%

L2-Total-Hits:           2927057   80.32%
L2-Total-Misses:          717260   19.68%
L2-Total-Accesses:       3644317  100.00%

