--------
Total Statistics
--------
Total Instructions: 10887615013
Total Cycles: 17458835113
IPC: 0.623616

--------
Single level Tlb hierarchy
--------
  Data Tlb:
    Entries:          64
    Page Size(B):   4096
    Associativity:      4

Latencies:    0  100
Tlb-Sets:   16 - LRU - assoc:   4

Tlb Stats:
Tlb-Load-Hits:        2283439451   99.41%
Tlb-Load-Misses:        13579999    0.59%
Tlb-Load-Accesses:    2297019450  100.00%

Tlb-Store-Hits:         591940031   99.96%
Tlb-Store-Misses:          265789    0.04%
Tlb-Store-Accesses:     592205820  100.00%

Tlb-Total-Hits:        2875379482   99.52%
Tlb-Total-Misses:        13845788    0.48%
Tlb-Total-Accesses:    2889225270  100.00%



--------
Two level Cache hierarchy
--------
  L1-Data Cache:
    Size(KB):          32
    Block Size(B):     64
    Associativity:      8

  L2-Data Cache:
    Size(KB):         512
    Block Size(B):    256
    Associativity:      8

Latencies:    1   15  250
L1-Sets:   64 - LRU - assoc:   8
L2-Sets:  256 - LRU - assoc:   8
Store_allocation: Yes
L2_inclusive: Yes
L2_prefetching: No

L1 Cache Stats:
L1-Load-Hits:        2184094224   95.08%
L1-Load-Misses:       112925226    4.92%
L1-Load-Accesses:    2297019450  100.00%

L1-Store-Hits:         585824044   98.92%
L1-Store-Misses:         6381776    1.08%
L1-Store-Accesses:     592205820  100.00%

L1-Total-Hits:        2769918268   95.87%
L1-Total-Misses:       119307002    4.13%
L1-Total-Accesses:    2889225270  100.00%

L2 Cache Stats:
L2-Load-Hits:         111235801   98.50%
L2-Load-Misses:         1689425    1.50%
L2-Load-Accesses:     112925226  100.00%

L2-Store-Hits:           6039957   94.64%
L2-Store-Misses:          341819    5.36%
L2-Store-Accesses:       6381776  100.00%

L2-Total-Hits:         117275758   98.30%
L2-Total-Misses:         2031244    1.70%
L2-Total-Accesses:     119307002  100.00%

