--------
Total Statistics
--------
Total Instructions: 1503753543
Total Cycles: 13891220040
IPC: 0.108252

--------
Single level Tlb hierarchy
--------
  Data Tlb:
    Entries:          64
    Page Size(B):   4096
    Associativity:      4

Latencies:    0  100
Tlb-Sets:   16 - LRU - assoc:   4

Tlb Stats:
Tlb-Load-Hits:         244730242   86.74%
Tlb-Load-Misses:        37423720   13.26%
Tlb-Load-Accesses:     282153962  100.00%

Tlb-Store-Hits:          76171771   99.59%
Tlb-Store-Misses:          309774    0.41%
Tlb-Store-Accesses:      76481545  100.00%

Tlb-Total-Hits:         320902013   89.48%
Tlb-Total-Misses:        37733494   10.52%
Tlb-Total-Accesses:     358635507  100.00%



--------
Two level Cache hierarchy
--------
  L1-Data Cache:
    Size(KB):          32
    Block Size(B):     64
    Associativity:      8

  L2-Data Cache:
    Size(KB):        2048
    Block Size(B):    256
    Associativity:     16

Latencies:    1   15  250
L1-Sets:   64 - LRU - assoc:   8
L2-Sets:  512 - LRU - assoc:  16
Store_allocation: Yes
L2_inclusive: Yes
L2_prefetching: No

L1 Cache Stats:
L1-Load-Hits:         211588699   74.99%
L1-Load-Misses:        70565263   25.01%
L1-Load-Accesses:     282153962  100.00%

L1-Store-Hits:          76474752   99.99%
L1-Store-Misses:            6793    0.01%
L1-Store-Accesses:      76481545  100.00%

L1-Total-Hits:         288063451   80.32%
L1-Total-Misses:        70572056   19.68%
L1-Total-Accesses:     358635507  100.00%

L2 Cache Stats:
L2-Load-Hits:          41779113   59.21%
L2-Load-Misses:        28786150   40.79%
L2-Load-Accesses:      70565263  100.00%

L2-Store-Hits:              5340   78.61%
L2-Store-Misses:            1453   21.39%
L2-Store-Accesses:          6793  100.00%

L2-Total-Hits:          41784453   59.21%
L2-Total-Misses:        28787603   40.79%
L2-Total-Accesses:      70572056  100.00%

