--------
Total Statistics
--------
Total Instructions: 31839034736
Total Cycles: 53269531100
IPC: 0.597697

--------
Single level Tlb hierarchy
--------
  Data Tlb:
    Entries:          64
    Page Size(B):   4096
    Associativity:      4

Latencies:    0  100
Tlb-Sets:   16 - LRU - assoc:   4

Tlb Stats:
Tlb-Load-Hits:        9241175950   99.65%
Tlb-Load-Misses:        32559796    0.35%
Tlb-Load-Accesses:    9273735746  100.00%

Tlb-Store-Hits:        4831407747   99.81%
Tlb-Store-Misses:         9115291    0.19%
Tlb-Store-Accesses:    4840523038  100.00%

Tlb-Total-Hits:       14072583697   99.70%
Tlb-Total-Misses:        41675087    0.30%
Tlb-Total-Accesses:   14114258784  100.00%



--------
Two level Cache hierarchy
--------
  L1-Data Cache:
    Size(KB):          32
    Block Size(B):     64
    Associativity:      8

  L2-Data Cache:
    Size(KB):        2048
    Block Size(B):     64
    Associativity:     16

Latencies:    1   15  250
L1-Sets:   64 - LRU - assoc:   8
L2-Sets: 2048 - LRU - assoc:  16
Store_allocation: Yes
L2_inclusive: Yes
L2_prefetching: No

L1 Cache Stats:
L1-Load-Hits:        9231006356   99.54%
L1-Load-Misses:        42729390    0.46%
L1-Load-Accesses:    9273735746  100.00%

L1-Store-Hits:        4833046536   99.85%
L1-Store-Misses:         7476502    0.15%
L1-Store-Accesses:    4840523038  100.00%

L1-Total-Hits:       14064052892   99.64%
L1-Total-Misses:        50205892    0.36%
L1-Total-Accesses:   14114258784  100.00%

L2 Cache Stats:
L2-Load-Hits:          36377653   85.13%
L2-Load-Misses:         6351737   14.87%
L2-Load-Accesses:      42729390  100.00%

L2-Store-Hits:           4245677   56.79%
L2-Store-Misses:         3230825   43.21%
L2-Store-Accesses:       7476502  100.00%

L2-Total-Hits:          40623330   80.91%
L2-Total-Misses:         9582562   19.09%
L2-Total-Accesses:      50205892  100.00%

