--------
Total Statistics
--------
Total Instructions: 6594161979
Total Cycles: 9084754560
IPC: 0.725849

--------
Single level Tlb hierarchy
--------
  Data Tlb:
    Entries:          64
    Page Size(B):   4096
    Associativity:      4

Latencies:    0  100
Tlb-Sets:   16 - LRU - assoc:   4

Tlb Stats:
Tlb-Load-Hits:        1667188095   99.96%
Tlb-Load-Misses:          643295    0.04%
Tlb-Load-Accesses:    1667831390  100.00%

Tlb-Store-Hits:         565338798   99.98%
Tlb-Store-Misses:           93648    0.02%
Tlb-Store-Accesses:     565432446  100.00%

Tlb-Total-Hits:        2232526893   99.97%
Tlb-Total-Misses:          736943    0.03%
Tlb-Total-Accesses:    2233263836  100.00%



--------
Two level Cache hierarchy
--------
  L1-Data Cache:
    Size(KB):          32
    Block Size(B):     64
    Associativity:      8

  L2-Data Cache:
    Size(KB):        1024
    Block Size(B):    256
    Associativity:     16

Latencies:    1   15  250
L1-Sets:   64 - LRU - assoc:   8
L2-Sets:  256 - LRU - assoc:  16
Store_allocation: Yes
L2_inclusive: Yes
L2_prefetching: No

L1 Cache Stats:
L1-Load-Hits:        1664626664   99.81%
L1-Load-Misses:         3204726    0.19%
L1-Load-Accesses:    1667831390  100.00%

L1-Store-Hits:         564905409   99.91%
L1-Store-Misses:          527037    0.09%
L1-Store-Accesses:     565432446  100.00%

L1-Total-Hits:        2229532073   99.83%
L1-Total-Misses:         3731763    0.17%
L1-Total-Accesses:    2233263836  100.00%

L2 Cache Stats:
L2-Load-Hits:           2791683   87.11%
L2-Load-Misses:          413043   12.89%
L2-Load-Accesses:       3204726  100.00%

L2-Store-Hits:            429448   81.48%
L2-Store-Misses:           97589   18.52%
L2-Store-Accesses:        527037  100.00%

L2-Total-Hits:           3221131   86.32%
L2-Total-Misses:          510632   13.68%
L2-Total-Accesses:       3731763  100.00%

