--------
Total Statistics
--------
Total Instructions: 6594161979
Total Cycles: 9187588450
IPC: 0.717725

--------
Single level Tlb hierarchy
--------
  Data Tlb:
    Entries:          64
    Page Size(B):   4096
    Associativity:      4

Latencies:    0  100
Tlb-Sets:   16 - LRU - assoc:   4

Tlb Stats:
Tlb-Load-Hits:        1667277379   99.97%
Tlb-Load-Misses:          554011    0.03%
Tlb-Load-Accesses:    1667831390  100.00%

Tlb-Store-Hits:         565379400   99.99%
Tlb-Store-Misses:           53046    0.01%
Tlb-Store-Accesses:     565432446  100.00%

Tlb-Total-Hits:        2232656779   99.97%
Tlb-Total-Misses:          607057    0.03%
Tlb-Total-Accesses:    2233263836  100.00%



--------
Two level Cache hierarchy
--------
  L1-Data Cache:
    Size(KB):          32
    Block Size(B):     64
    Associativity:      8

  L2-Data Cache:
    Size(KB):        2048
    Block Size(B):    128
    Associativity:     16

Latencies:    1   15  250
L1-Sets:   64 - LRU - assoc:   8
L2-Sets: 1024 - LRU - assoc:  16
Store_allocation: Yes
L2_inclusive: Yes
L2_prefetching: No

L1 Cache Stats:
L1-Load-Hits:        1664279765   99.79%
L1-Load-Misses:         3551625    0.21%
L1-Load-Accesses:    1667831390  100.00%

L1-Store-Hits:         564817742   99.89%
L1-Store-Misses:          614704    0.11%
L1-Store-Accesses:     565432446  100.00%

L1-Total-Hits:        2229097507   99.81%
L1-Total-Misses:         4166329    0.19%
L1-Total-Accesses:    2233263836  100.00%

L2 Cache Stats:
L2-Load-Hits:           2798424   78.79%
L2-Load-Misses:          753201   21.21%
L2-Load-Accesses:       3551625  100.00%

L2-Store-Hits:            420057   68.33%
L2-Store-Misses:          194647   31.67%
L2-Store-Accesses:        614704  100.00%

L2-Total-Hits:           3218481   77.25%
L2-Total-Misses:          947848   22.75%
L2-Total-Accesses:       4166329  100.00%

