--------
Total Statistics
--------
Total Instructions: 17760362358
Total Cycles: 112710066685
IPC: 0.157576

--------
Single level Tlb hierarchy
--------
  Data Tlb:
    Entries:          64
    Page Size(B):   4096
    Associativity:      4

Latencies:    0  100
Tlb-Sets:   16 - LRU - assoc:   4

Tlb Stats:
Tlb-Load-Hits:        2975231857   98.89%
Tlb-Load-Misses:        33391293    1.11%
Tlb-Load-Accesses:    3008623150  100.00%

Tlb-Store-Hits:          85534719   99.80%
Tlb-Store-Misses:          172048    0.20%
Tlb-Store-Accesses:      85706767  100.00%

Tlb-Total-Hits:        3060766576   98.92%
Tlb-Total-Misses:        33563341    1.08%
Tlb-Total-Accesses:    3094329917  100.00%



--------
Two level Cache hierarchy
--------
  L1-Data Cache:
    Size(KB):          32
    Block Size(B):     64
    Associativity:      8

  L2-Data Cache:
    Size(KB):        1024
    Block Size(B):     64
    Associativity:      8

Latencies:    1   15  250
L1-Sets:   64 - LRU - assoc:   8
L2-Sets: 2048 - LRU - assoc:   8
Store_allocation: Yes
L2_inclusive: Yes
L2_prefetching: No

L1 Cache Stats:
L1-Load-Hits:        2664351529   88.56%
L1-Load-Misses:       344271621   11.44%
L1-Load-Accesses:    3008623150  100.00%

L1-Store-Hits:          84695284   98.82%
L1-Store-Misses:         1011483    1.18%
L1-Store-Accesses:      85706767  100.00%

L1-Total-Hits:        2749046813   88.84%
L1-Total-Misses:       345283104   11.16%
L1-Total-Accesses:    3094329917  100.00%

L2 Cache Stats:
L2-Load-Hits:          11885568    3.45%
L2-Load-Misses:       332386053   96.55%
L2-Load-Accesses:     344271621  100.00%

L2-Store-Hits:            118361   11.70%
L2-Store-Misses:          893122   88.30%
L2-Store-Accesses:       1011483  100.00%

L2-Total-Hits:          12003929    3.48%
L2-Total-Misses:       333279175   96.52%
L2-Total-Accesses:     345283104  100.00%

