                                     | Core 0     | Core 1     | Core 2     | Core 3     | Core 4     | Core 5     | Core 6     | Core 7    
  Instructions                       |   40470455 |   46392539 |   48096757 |   46159111 |   43620861 |   36754495 |   47761683 |   47840283
  Cycles                             |   27008954 |   27008954 |   27008954 |   27008954 |   27008954 |   27008954 |   27008954 |   27008954
  IPC                                |       1.50 |       1.72 |       1.78 |       1.71 |       1.62 |       1.36 |       1.77 |       1.77
  Time (ns)                          |   10153742 |   10153742 |   10153742 |   10153742 |   10153742 |   10153742 |   10153742 |   10153742
  Idle time (ns)                     |    1444006 |     330677 |       6617 |     376921 |     806692 |    2116985 |      16715 |       8809
  Idle time (%)                      |      14.2% |       3.3% |       0.1% |       3.7% |       7.9% |      20.8% |       0.2% |       0.1%
Branch predictor stats               |            |            |            |            |            |            |            |           
  num correct                        |    9881567 |   11362064 |   11788088 |   11303729 |   10669135 |    8952570 |   11704344 |   11723970
  num incorrect                      |        299 |        326 |        356 |        304 |        335 |        309 |        333 |        363
  misprediction rate                 |      0.00% |      0.00% |      0.00% |      0.00% |      0.00% |      0.00% |      0.00% |      0.00%
  mpki                               |       0.01 |       0.01 |       0.01 |       0.01 |       0.01 |       0.01 |       0.01 |       0.01
TLB Summary                          |            |            |            |            |            |            |            |           
Cache Summary                        |            |            |            |            |            |            |            |           
  Cache L1-I                         |            |            |            |            |            |            |            |           
    num cache accesses               |   19767710 |   22728770 |   23580876 |   22612056 |   21342928 |   17909748 |   23413348 |   23452646
    num cache misses                 |         17 |         18 |         18 |         18 |         18 |         18 |         18 |         17
    miss rate                        |      0.00% |      0.00% |      0.00% |      0.00% |      0.00% |      0.00% |      0.00% |      0.00%
    mpki                             |       0.00 |       0.00 |       0.00 |       0.00 |       0.00 |       0.00 |       0.00 |       0.00
  Cache L1-D                         |            |            |            |            |            |            |            |           
    num cache accesses               |   20489760 |   23450804 |   24302912 |   23334090 |   22064965 |   18631782 |   24135376 |   24174682
    num cache misses                 |       4527 |       5208 |       5388 |       5239 |       7350 |       6147 |       8144 |       7982
    miss rate                        |      0.02% |      0.02% |      0.02% |      0.02% |      0.03% |      0.03% |      0.03% |      0.03%
    mpki                             |       0.11 |       0.11 |       0.11 |       0.11 |       0.17 |       0.17 |       0.17 |       0.17
  Cache L2                           |            |            |            |            |            |            |            |           
    num cache accesses               |       6518 |       7162 |       7366 |       7193 |       8007 |       6787 |       8615 |       8499
    num cache misses                 |        606 |        577 |        596 |        553 |       2159 |       1656 |       2517 |       2235
    miss rate                        |      9.30% |      8.06% |      8.09% |      7.69% |     26.96% |     24.40% |     29.22% |     26.30%
    mpki                             |       0.01 |       0.01 |       0.01 |       0.01 |       0.05 |       0.05 |       0.05 |       0.05
  Cache L3                           |            |            |            |            |            |            |            |           
    num cache accesses               |       2211 |       2114 |       2181 |       2072 |       2161 |       1658 |       2519 |       2238
    num cache misses                 |         15 |          6 |          3 |          8 |          3 |          5 |          9 |          3
    miss rate                        |      0.68% |      0.28% |      0.14% |      0.39% |      0.14% |      0.30% |      0.36% |      0.13%
    mpki                             |       0.00 |       0.00 |       0.00 |       0.00 |       0.00 |       0.00 |       0.00 |       0.00
DRAM summary                         |            |            |            |            |            |            |            |           
  num dram accesses                  |         48 |          0 |          0 |          0 |          0 |          0 |          0 |          0
  average dram access latency (ns)   |     120.62 |        inf |        inf |        inf |        inf |        inf |        inf |        inf
  average dram queueing delay        |      67.19 |       0.00 |       0.00 |       0.00 |       0.00 |       0.00 |       0.00 |       0.00
  average dram bandwidth utilization |      0.00% |      0.00% |      0.00% |      0.00% |      0.00% |      0.00% |      0.00% |      0.00%
Coherency Traffic                    |            |            |            |            |            |            |            |           
  num loads from dram                |          3 |          3 |          2 |          2 |          3 |          3 |          5 |          3
  num loads from dram cache          |          0 |          0 |          0 |          0 |          0 |          0 |          0 |          0
  num loads from remote cache        |          0 |          0 |          0 |          0 |          0 |          0 |          0 |          0
