ERROR: Thread 0 dying after unexpected exception @icount: 859794 PC 0x0004ee5a5

see /home/mike/arch/3rd_Assignment/outputs/soplex/soplex.DW_08-WS_001.out/pinball_replay.app0.txt for more details. Exiting...
[RECORD-TRACE] Using the Pin frontend (sift/recorder)
