ERROR: Thread 0 dying after unexpected exception @icount: 90397 PC 0x000772007

see /home/mike/arch/3rd_Assignment/outputs/xalancbmk/xalancbmk.DW_08-WS_001.out/pinball_replay.app0.txt for more details. Exiting...
[RECORD-TRACE] Using the Pin frontend (sift/recorder)
