                     Power     Energy    Energy %
  core-core       17514.07 W     2.82  J     98.52%
  core-ifetch     183.89 W     0.03  J      1.03%
  core-alu          2.34 W     0.38 mJ      0.01%
  core-int         25.23 W     4.06 mJ      0.14%
  core-fp           6.00 W     0.97 mJ      0.03%
  core-mem          6.13 W     0.99 mJ      0.03%
  core-other       11.24 W     1.81 mJ      0.06%
  icache            8.33 W     1.34 mJ      0.05%
  dcache           10.45 W     1.68 mJ      0.06%
  l2                2.00 W     0.32 mJ      0.01%
  l3                3.52 W     0.57 mJ      0.02%
  nuca              0.00 W     0.00  J      0.00%
  noc               0.30 W     0.05 mJ      0.00%
  dram              4.28 W     0.69 mJ      0.02%

  core            17748.91 W     2.86  J     99.84%
  cache            24.30 W     3.91 mJ      0.14%
  total           17777.79 W     2.86  J    100.00%
