                     Power     Energy    Energy %
  core-core       2168.58 W     1.38  J     96.07%
  core-ifetch      27.54 W     0.02  J      1.22%
  core-alu          2.33 W     1.49 mJ      0.10%
  core-int         23.69 W     0.02  J      1.05%
  core-fp           5.96 W     3.79 mJ      0.26%
  core-mem          2.34 W     1.49 mJ      0.10%
  core-other       11.26 W     7.17 mJ      0.50%
  icache            2.57 W     1.64 mJ      0.11%
  dcache            3.13 W     1.99 mJ      0.14%
  l2                1.94 W     1.23 mJ      0.09%
  l3                3.39 W     2.16 mJ      0.15%
  nuca              0.00 W     0.00  J      0.00%
  noc               0.30 W     0.19 mJ      0.01%
  dram              4.30 W     2.73 mJ      0.19%

  core            2241.69 W     1.43  J     99.31%
  cache            11.03 W     7.02 mJ      0.49%
  total           2257.31 W     1.44  J    100.00%
