                                     | Core 0     | Core 1     | Core 2     | Core 3    
  Instructions                       |      72997 |      84992 |      96981 |      89940
  Cycles                             |     319762 |     319762 |     319762 |     319762
  IPC                                |       0.23 |       0.27 |       0.30 |       0.28
  Time (ns)                          |     120212 |     120212 |     120212 |     120212
  Idle time (ns)                     |      78604 |      24090 |       4378 |       9353
  Idle time (%)                      |      65.4% |      20.0% |       3.6% |       7.8%
Branch predictor stats               |            |            |            |           
  num correct                        |       4969 |       7360 |       9741 |       8357
  num incorrect                      |         38 |         41 |         57 |         38
  misprediction rate                 |      0.76% |      0.55% |      0.58% |      0.45%
  mpki                               |       0.52 |       0.48 |       0.59 |       0.42
TLB Summary                          |            |            |            |           
Cache Summary                        |            |            |            |           
  Cache L1-I                         |            |            |            |           
    num cache accesses               |      16008 |      20795 |      25585 |      22786
    num cache misses                 |         17 |         19 |         19 |         18
    miss rate                        |      0.11% |      0.09% |      0.07% |      0.08%
    mpki                             |       0.23 |       0.22 |       0.20 |       0.20
  Cache L1-D                         |            |            |            |           
    num cache accesses               |      44027 |      51204 |      58396 |      54186
    num cache misses                 |       1413 |       2707 |       3156 |       3067
    miss rate                        |      3.21% |      5.29% |      5.40% |      5.66%
    mpki                             |      19.36 |      31.85 |      32.54 |      34.10
  Cache L2                           |            |            |            |           
    num cache accesses               |       1602 |       2853 |       3279 |       3223
    num cache misses                 |       1434 |       2727 |       3176 |       3085
    miss rate                        |     89.51% |     95.58% |     96.86% |     95.72%
    mpki                             |      19.64 |      32.09 |      32.75 |      34.30
  Cache L3                           |            |            |            |           
    num cache accesses               |       1602 |       2853 |       3279 |       3223
    num cache misses                 |       1434 |       2727 |       3176 |       3085
    miss rate                        |     89.51% |     95.58% |     96.86% |     95.72%
    mpki                             |      19.64 |      32.09 |      32.75 |      34.30
DRAM summary                         |            |            |            |           
  num dram accesses                  |        391 |          0 |          0 |          0
  average dram access latency (ns)   |      99.45 |        inf |        inf |        inf
  average dram queueing delay        |      46.02 |       0.00 |       0.00 |       0.00
  average dram bandwidth utilization |      2.00% |      0.00% |      0.00% |      0.00%
Coherency Traffic                    |            |            |            |           
  num loads from dram                |          7 |          6 |          6 |          6
  num loads from dram cache          |          0 |          0 |          0 |          0
  num loads from remote cache        |        346 |        273 |        182 |        277
