                                     | Core 0     | Core 1     | Core 2     | Core 3    
  Instructions                       |     126000 |     161050 |     134077 |     122025
  Cycles                             |     143251 |     143251 |     143251 |     143251
  IPC                                |       0.88 |       1.12 |       0.94 |       0.85
  Time (ns)                          |      53854 |      53854 |      53854 |      53854
  Idle time (ns)                     |      16959 |       5438 |      14978 |      20882
  Idle time (%)                      |      31.5% |      10.1% |      27.8% |      38.8%
Branch predictor stats               |            |            |            |           
  num correct                        |      13431 |      19307 |      14779 |      12803
  num incorrect                      |         79 |         47 |         77 |         40
  misprediction rate                 |      0.58% |      0.24% |      0.52% |      0.31%
  mpki                               |       0.63 |       0.29 |       0.57 |       0.33
TLB Summary                          |            |            |            |           
Cache Summary                        |            |            |            |           
  Cache L1-I                         |            |            |            |           
    num cache accesses               |      31012 |      42701 |      33712 |      29683
    num cache misses                 |         17 |         15 |         18 |         19
    miss rate                        |      0.05% |      0.04% |      0.05% |      0.06%
    mpki                             |       0.13 |       0.09 |       0.13 |       0.16
  Cache L1-D                         |            |            |            |           
    num cache accesses               |      69529 |      87065 |      73573 |      67537
    num cache misses                 |        658 |        609 |        792 |        691
    miss rate                        |      0.95% |      0.70% |      1.08% |      1.02%
    mpki                             |       5.22 |       3.78 |       5.91 |       5.66
  Cache L2                           |            |            |            |           
    num cache accesses               |        678 |        628 |        813 |        711
    num cache misses                 |         11 |          4 |          7 |         14
    miss rate                        |      1.62% |      0.64% |      0.86% |      1.97%
    mpki                             |       0.09 |       0.02 |       0.05 |       0.11
  Cache L3                           |            |            |            |           
    num cache accesses               |         12 |          6 |          9 |         15
    num cache misses                 |         11 |          4 |          7 |         14
    miss rate                        |     91.67% |     66.67% |     77.78% |     93.33%
    mpki                             |       0.09 |       0.02 |       0.05 |       0.11
DRAM summary                         |            |            |            |           
  num dram accesses                  |         36 |          0 |          0 |          0
  average dram access latency (ns)   |     114.61 |        inf |        inf |        inf
  average dram queueing delay        |      61.18 |       0.00 |       0.00 |       0.00
  average dram bandwidth utilization |      0.00% |      0.00% |      0.00% |      0.00%
Coherency Traffic                    |            |            |            |           
  num loads from dram                |          2 |          2 |          3 |          3
  num loads from dram cache          |          0 |          0 |          0 |          0
  num loads from remote cache        |          0 |          0 |          0 |          0
