ERROR: Thread 0 dying after unexpected exception @icount: 12770233 PC 0x00047ca37

see /home/mike/arch/3rd_Assignment/outputs/hmmer/hmmer.DW_16-WS_016.out/pinball_replay.app0.txt for more details. Exiting...
[RECORD-TRACE] Using the Pin frontend (sift/recorder)
