--------
Total Statistics
--------
Total Instructions: 2209873900
Total Cycles: 6926964479
IPC: 0.319025

--------
Single level Tlb hierarchy
--------
  Data Tlb:
    Entries:          64
    Page Size(B):   4096
    Associativity:      4

Latencies:    0  100
Tlb-Sets:   16 - LRU - assoc:   4

Tlb Stats:
Tlb-Load-Hits:         563280362   94.18%
Tlb-Load-Misses:        34833038    5.82%
Tlb-Load-Accesses:     598113400  100.00%

Tlb-Store-Hits:         126179037   99.67%
Tlb-Store-Misses:          421402    0.33%
Tlb-Store-Accesses:     126600439  100.00%

Tlb-Total-Hits:         689459399   95.14%
Tlb-Total-Misses:        35254440    4.86%
Tlb-Total-Accesses:     724713839  100.00%



--------
Two level Cache hierarchy
--------
  L1-Data Cache:
    Size(KB):          32
    Block Size(B):     32
    Associativity:      8

  L2-Data Cache:
    Size(KB):        1024
    Block Size(B):    128
    Associativity:      8

Latencies:    1   15  250
L1-Sets:  128 - LRU - assoc:   8
L2-Sets: 1024 - LRU - assoc:   8
Store_allocation: Yes
L2_inclusive: Yes
L2_prefetching: No

L1 Cache Stats:
L1-Load-Hits:         591911945   98.96%
L1-Load-Misses:         6201455    1.04%
L1-Load-Accesses:     598113400  100.00%

L1-Store-Hits:         125577628   99.19%
L1-Store-Misses:         1022811    0.81%
L1-Store-Accesses:     126600439  100.00%

L1-Total-Hits:         717489573   99.00%
L1-Total-Misses:         7224266    1.00%
L1-Total-Accesses:     724713839  100.00%

L2 Cache Stats:
L2-Load-Hits:           4972090   80.18%
L2-Load-Misses:         1229365   19.82%
L2-Load-Accesses:       6201455  100.00%

L2-Store-Hits:            817901   79.97%
L2-Store-Misses:          204910   20.03%
L2-Store-Accesses:       1022811  100.00%

L2-Total-Hits:           5789991   80.15%
L2-Total-Misses:         1434275   19.85%
L2-Total-Accesses:       7224266  100.00%

