--------
Total Statistics
--------
Total Instructions: 10887615038
Total Cycles: 17375029426
IPC: 0.626624

--------
Single level Tlb hierarchy
--------
  Data Tlb:
    Entries:          64
    Page Size(B):   4096
    Associativity:      4

Latencies:    0  100
Tlb-Sets:   16 - LRU - assoc:   4

Tlb Stats:
Tlb-Load-Hits:        2283429410   99.41%
Tlb-Load-Misses:        13590048    0.59%
Tlb-Load-Accesses:    2297019458  100.00%

Tlb-Store-Hits:         591940010   99.96%
Tlb-Store-Misses:          265810    0.04%
Tlb-Store-Accesses:     592205820  100.00%

Tlb-Total-Hits:        2875369420   99.52%
Tlb-Total-Misses:        13855858    0.48%
Tlb-Total-Accesses:    2889225278  100.00%



--------
Two level Cache hierarchy
--------
  L1-Data Cache:
    Size(KB):          32
    Block Size(B):     32
    Associativity:      8

  L2-Data Cache:
    Size(KB):        1024
    Block Size(B):    128
    Associativity:      8

Latencies:    1   15  250
L1-Sets:  128 - LRU - assoc:   8
L2-Sets: 1024 - LRU - assoc:   8
Store_allocation: Yes
L2_inclusive: Yes
L2_prefetching: No

L1 Cache Stats:
L1-Load-Hits:        2177713125   94.81%
L1-Load-Misses:       119306333    5.19%
L1-Load-Accesses:    2297019458  100.00%

L1-Store-Hits:         582049099   98.28%
L1-Store-Misses:        10156721    1.72%
L1-Store-Accesses:     592205820  100.00%

L1-Total-Hits:        2759762224   95.52%
L1-Total-Misses:       129463054    4.48%
L1-Total-Accesses:    2889225278  100.00%

L2 Cache Stats:
L2-Load-Hits:         118724319   99.51%
L2-Load-Misses:          582014    0.49%
L2-Load-Accesses:     119306333  100.00%

L2-Store-Hits:           9656105   95.07%
L2-Store-Misses:          500616    4.93%
L2-Store-Accesses:      10156721  100.00%

L2-Total-Hits:         128380424   99.16%
L2-Total-Misses:         1082630    0.84%
L2-Total-Accesses:     129463054  100.00%

