--------
Total Statistics
--------
Total Instructions: 1503753568
Total Cycles: 15020843098
IPC: 0.100111

--------
Single level Tlb hierarchy
--------
  Data Tlb:
    Entries:          64
    Page Size(B):   4096
    Associativity:      4

Latencies:    0  100
Tlb-Sets:   16 - LRU - assoc:   4

Tlb Stats:
Tlb-Load-Hits:         241913041   85.74%
Tlb-Load-Misses:        40240929   14.26%
Tlb-Load-Accesses:     282153970  100.00%

Tlb-Store-Hits:          75267104   98.41%
Tlb-Store-Misses:         1214441    1.59%
Tlb-Store-Accesses:      76481545  100.00%

Tlb-Total-Hits:         317180145   88.44%
Tlb-Total-Misses:        41455370   11.56%
Tlb-Total-Accesses:     358635515  100.00%



--------
Two level Cache hierarchy
--------
  L1-Data Cache:
    Size(KB):         128
    Block Size(B):     64
    Associativity:      8

  L2-Data Cache:
    Size(KB):        1024
    Block Size(B):    128
    Associativity:      8

Latencies:    1   15  250
L1-Sets:  256 - LRU - assoc:   8
L2-Sets: 1024 - LRU - assoc:   8
Store_allocation: Yes
L2_inclusive: Yes
L2_prefetching: No

L1 Cache Stats:
L1-Load-Hits:         213156894   75.55%
L1-Load-Misses:        68997076   24.45%
L1-Load-Accesses:     282153970  100.00%

L1-Store-Hits:          76481220  100.00%
L1-Store-Misses:             325    0.00%
L1-Store-Accesses:      76481545  100.00%

L1-Total-Hits:         289638114   80.76%
L1-Total-Misses:        68997401   19.24%
L1-Total-Accesses:     358635515  100.00%

L2 Cache Stats:
L2-Load-Hits:          37085346   53.75%
L2-Load-Misses:        31911730   46.25%
L2-Load-Accesses:      68997076  100.00%

L2-Store-Hits:               231   71.08%
L2-Store-Misses:              94   28.92%
L2-Store-Accesses:           325  100.00%

L2-Total-Hits:          37085577   53.75%
L2-Total-Misses:        31911824   46.25%
L2-Total-Accesses:      68997401  100.00%

