--------
Total Statistics
--------
Total Instructions: 23190015623
Total Cycles: 49917362549
IPC: 0.464568

--------
Single level Tlb hierarchy
--------
  Data Tlb:
    Entries:          64
    Page Size(B):   4096
    Associativity:      4

Latencies:    0  100
Tlb-Sets:   16 - LRU - assoc:   4

Tlb Stats:
Tlb-Load-Hits:        6509035956   99.54%
Tlb-Load-Misses:        30013056    0.46%
Tlb-Load-Accesses:    6539049012  100.00%

Tlb-Store-Hits:        1316655340   99.74%
Tlb-Store-Misses:         3491004    0.26%
Tlb-Store-Accesses:    1320146344  100.00%

Tlb-Total-Hits:        7825691296   99.57%
Tlb-Total-Misses:        33504060    0.43%
Tlb-Total-Accesses:    7859195356  100.00%



--------
Two level Cache hierarchy
--------
  L1-Data Cache:
    Size(KB):         128
    Block Size(B):     32
    Associativity:      8

  L2-Data Cache:
    Size(KB):        1024
    Block Size(B):    128
    Associativity:      8

Latencies:    1   15  250
L1-Sets:  512 - LRU - assoc:   8
L2-Sets: 1024 - LRU - assoc:   8
Store_allocation: Yes
L2_inclusive: Yes
L2_prefetching: No

L1 Cache Stats:
L1-Load-Hits:        6375070700   97.49%
L1-Load-Misses:       163978312    2.51%
L1-Load-Accesses:    6539049012  100.00%

L1-Store-Hits:        1286234968   97.43%
L1-Store-Misses:        33911376    2.57%
L1-Store-Accesses:    1320146344  100.00%

L1-Total-Hits:        7661305668   97.48%
L1-Total-Misses:       197889688    2.52%
L1-Total-Accesses:    7859195356  100.00%

L2 Cache Stats:
L2-Load-Hits:         117926717   71.92%
L2-Load-Misses:        46051595   28.08%
L2-Load-Accesses:     163978312  100.00%

L2-Store-Hits:          29765370   87.77%
L2-Store-Misses:         4146006   12.23%
L2-Store-Accesses:      33911376  100.00%

L2-Total-Hits:         147692087   74.63%
L2-Total-Misses:        50197601   25.37%
L2-Total-Accesses:     197889688  100.00%

