--------
Total Statistics
--------
Total Instructions: 8307924786
Total Cycles: 13028696682
IPC: 0.637664

--------
Single level Tlb hierarchy
--------
  Data Tlb:
    Entries:          64
    Page Size(B):   4096
    Associativity:      4

Latencies:    0  100
Tlb-Sets:   16 - LRU - assoc:   4

Tlb Stats:
Tlb-Load-Hits:        1869902224   99.97%
Tlb-Load-Misses:          564874    0.03%
Tlb-Load-Accesses:    1870467098  100.00%

Tlb-Store-Hits:         183336845   99.85%
Tlb-Store-Misses:          279848    0.15%
Tlb-Store-Accesses:     183616693  100.00%

Tlb-Total-Hits:        2053239069   99.96%
Tlb-Total-Misses:          844722    0.04%
Tlb-Total-Accesses:    2054083791  100.00%



--------
Two level Cache hierarchy
--------
  L1-Data Cache:
    Size(KB):          32
    Block Size(B):     64
    Associativity:      8

  L2-Data Cache:
    Size(KB):        1024
    Block Size(B):    128
    Associativity:      8

Latencies:    1   15  250
L1-Sets:   64 - LRU - assoc:   8
L2-Sets: 1024 - LRU - assoc:   8
Store_allocation: Yes
L2_inclusive: Yes
L2_prefetching: No

L1 Cache Stats:
L1-Load-Hits:        1848549580   98.83%
L1-Load-Misses:        21917518    1.17%
L1-Load-Accesses:    1870467098  100.00%

L1-Store-Hits:         178122034   97.01%
L1-Store-Misses:         5494659    2.99%
L1-Store-Accesses:     183616693  100.00%

L1-Total-Hits:        2026671614   98.67%
L1-Total-Misses:        27412177    1.33%
L1-Total-Accesses:    2054083791  100.00%

L2 Cache Stats:
L2-Load-Hits:          15952202   72.78%
L2-Load-Misses:         5965316   27.22%
L2-Load-Accesses:      21917518  100.00%

L2-Store-Hits:           2775842   50.52%
L2-Store-Misses:         2718817   49.48%
L2-Store-Accesses:       5494659  100.00%

L2-Total-Hits:          18728044   68.32%
L2-Total-Misses:         8684133   31.68%
L2-Total-Accesses:      27412177  100.00%

