--------
Total Statistics
--------
Total Instructions: 6594161979
Total Cycles: 9216256485
IPC: 0.715492

--------
Single level Tlb hierarchy
--------
  Data Tlb:
    Entries:          64
    Page Size(B):   4096
    Associativity:      4

Latencies:    0  100
Tlb-Sets:   16 - LRU - assoc:   4

Tlb Stats:
Tlb-Load-Hits:        1667267233   99.97%
Tlb-Load-Misses:          564157    0.03%
Tlb-Load-Accesses:    1667831390  100.00%

Tlb-Store-Hits:         565380091   99.99%
Tlb-Store-Misses:           52355    0.01%
Tlb-Store-Accesses:     565432446  100.00%

Tlb-Total-Hits:        2232647324   99.97%
Tlb-Total-Misses:          616512    0.03%
Tlb-Total-Accesses:    2233263836  100.00%



--------
Two level Cache hierarchy
--------
  L1-Data Cache:
    Size(KB):          32
    Block Size(B):     32
    Associativity:      8

  L2-Data Cache:
    Size(KB):        1024
    Block Size(B):    128
    Associativity:      8

Latencies:    1   15  250
L1-Sets:  128 - LRU - assoc:   8
L2-Sets: 1024 - LRU - assoc:   8
Store_allocation: Yes
L2_inclusive: Yes
L2_prefetching: No

L1 Cache Stats:
L1-Load-Hits:        1663084729   99.72%
L1-Load-Misses:         4746661    0.28%
L1-Load-Accesses:    1667831390  100.00%

L1-Store-Hits:         564454609   99.83%
L1-Store-Misses:          977837    0.17%
L1-Store-Accesses:     565432446  100.00%

L1-Total-Hits:        2227539338   99.74%
L1-Total-Misses:         5724498    0.26%
L1-Total-Accesses:    2233263836  100.00%

L2 Cache Stats:
L2-Load-Hits:           3976447   83.77%
L2-Load-Misses:          770214   16.23%
L2-Load-Accesses:       4746661  100.00%

L2-Store-Hits:            782803   80.05%
L2-Store-Misses:          195034   19.95%
L2-Store-Accesses:        977837  100.00%

L2-Total-Hits:           4759250   83.14%
L2-Total-Misses:          965248   16.86%
L2-Total-Accesses:       5724498  100.00%

