--------
Total Statistics
--------
Total Instructions: 6594161979
Total Cycles: 9153754800
IPC: 0.720378

--------
Single level Tlb hierarchy
--------
  Data Tlb:
    Entries:          64
    Page Size(B):   4096
    Associativity:      4

Latencies:    0  100
Tlb-Sets:   16 - LRU - assoc:   4

Tlb Stats:
Tlb-Load-Hits:        1667278211   99.97%
Tlb-Load-Misses:          553179    0.03%
Tlb-Load-Accesses:    1667831390  100.00%

Tlb-Store-Hits:         565380004   99.99%
Tlb-Store-Misses:           52442    0.01%
Tlb-Store-Accesses:     565432446  100.00%

Tlb-Total-Hits:        2232658215   99.97%
Tlb-Total-Misses:          605621    0.03%
Tlb-Total-Accesses:    2233263836  100.00%



--------
Two level Cache hierarchy
--------
  L1-Data Cache:
    Size(KB):         128
    Block Size(B):    128
    Associativity:      8

  L2-Data Cache:
    Size(KB):        1024
    Block Size(B):    128
    Associativity:      8

Latencies:    1   15  250
L1-Sets:  128 - LRU - assoc:   8
L2-Sets: 1024 - LRU - assoc:   8
Store_allocation: Yes
L2_inclusive: Yes
L2_prefetching: No

L1 Cache Stats:
L1-Load-Hits:        1666552105   99.92%
L1-Load-Misses:         1279285    0.08%
L1-Load-Accesses:    1667831390  100.00%

L1-Store-Hits:         565234022   99.96%
L1-Store-Misses:          198424    0.04%
L1-Store-Accesses:     565432446  100.00%

L1-Total-Hits:        2231786127   99.93%
L1-Total-Misses:         1477709    0.07%
L1-Total-Accesses:    2233263836  100.00%

L2 Cache Stats:
L2-Load-Hits:            500742   39.14%
L2-Load-Misses:          778543   60.86%
L2-Load-Accesses:       1279285  100.00%

L2-Store-Hits:              2562    1.29%
L2-Store-Misses:          195862   98.71%
L2-Store-Accesses:        198424  100.00%

L2-Total-Hits:            503304   34.06%
L2-Total-Misses:          974405   65.94%
L2-Total-Accesses:       1477709  100.00%

