--------
Total Statistics
--------
Total Instructions: 17760362358
Total Cycles: 76734037955
IPC: 0.231454

--------
Single level Tlb hierarchy
--------
  Data Tlb:
    Entries:          64
    Page Size(B):   4096
    Associativity:      4

Latencies:    0  100
Tlb-Sets:   16 - LRU - assoc:   4

Tlb Stats:
Tlb-Load-Hits:        2975276406   98.89%
Tlb-Load-Misses:        33346744    1.11%
Tlb-Load-Accesses:    3008623150  100.00%

Tlb-Store-Hits:          85565029   99.83%
Tlb-Store-Misses:          141738    0.17%
Tlb-Store-Accesses:      85706767  100.00%

Tlb-Total-Hits:        3060841435   98.92%
Tlb-Total-Misses:        33488482    1.08%
Tlb-Total-Accesses:    3094329917  100.00%



--------
Two level Cache hierarchy
--------
  L1-Data Cache:
    Size(KB):          64
    Block Size(B):     64
    Associativity:      8

  L2-Data Cache:
    Size(KB):        1024
    Block Size(B):    128
    Associativity:      8

Latencies:    1   15  250
L1-Sets:  128 - LRU - assoc:   8
L2-Sets: 1024 - LRU - assoc:   8
Store_allocation: Yes
L2_inclusive: Yes
L2_prefetching: No

L1 Cache Stats:
L1-Load-Hits:        2502070299   83.16%
L1-Load-Misses:       506552851   16.84%
L1-Load-Accesses:    3008623150  100.00%

L1-Store-Hits:          83935886   97.93%
L1-Store-Misses:         1770881    2.07%
L1-Store-Accesses:      85706767  100.00%

L1-Total-Hits:        2586006185   83.57%
L1-Total-Misses:       508323732   16.43%
L1-Total-Accesses:    3094329917  100.00%

L2 Cache Stats:
L2-Load-Hits:         327398372   64.63%
L2-Load-Misses:       179154479   35.37%
L2-Load-Accesses:     506552851  100.00%

L2-Store-Hits:           1302794   73.57%
L2-Store-Misses:          468087   26.43%
L2-Store-Accesses:       1770881  100.00%

L2-Total-Hits:         328701166   64.66%
L2-Total-Misses:       179622566   35.34%
L2-Total-Accesses:     508323732  100.00%

