--------
Total Statistics
--------
Total Instructions: 17760362358
Total Cycles: 76819388700
IPC: 0.231196

--------
Single level Tlb hierarchy
--------
  Data Tlb:
    Entries:          64
    Page Size(B):   4096
    Associativity:      4

Latencies:    0  100
Tlb-Sets:   16 - LRU - assoc:   4

Tlb Stats:
Tlb-Load-Hits:        2975211708   98.89%
Tlb-Load-Misses:        33411442    1.11%
Tlb-Load-Accesses:    3008623150  100.00%

Tlb-Store-Hits:          85552868   99.82%
Tlb-Store-Misses:          153899    0.18%
Tlb-Store-Accesses:      85706767  100.00%

Tlb-Total-Hits:        3060764576   98.92%
Tlb-Total-Misses:        33565341    1.08%
Tlb-Total-Accesses:    3094329917  100.00%



--------
Two level Cache hierarchy
--------
  L1-Data Cache:
    Size(KB):          32
    Block Size(B):     64
    Associativity:      8

  L2-Data Cache:
    Size(KB):        1024
    Block Size(B):    128
    Associativity:      8

Latencies:    1   15  250
L1-Sets:   64 - LRU - assoc:   8
L2-Sets: 1024 - LRU - assoc:   8
Store_allocation: Yes
L2_inclusive: Yes
L2_prefetching: No

L1 Cache Stats:
L1-Load-Hits:        2497887465   83.02%
L1-Load-Misses:       510735685   16.98%
L1-Load-Accesses:    3008623150  100.00%

L1-Store-Hits:          83711697   97.67%
L1-Store-Misses:         1995070    2.33%
L1-Store-Accesses:      85706767  100.00%

L1-Total-Hits:        2581599162   83.43%
L1-Total-Misses:       512730755   16.57%
L1-Total-Accesses:    3094329917  100.00%

L2 Cache Stats:
L2-Load-Hits:         331535256   64.91%
L2-Load-Misses:       179200429   35.09%
L2-Load-Accesses:     510735685  100.00%

L2-Store-Hits:           1526695   76.52%
L2-Store-Misses:          468375   23.48%
L2-Store-Accesses:       1995070  100.00%

L2-Total-Hits:         333061951   64.96%
L2-Total-Misses:       179668804   35.04%
L2-Total-Accesses:     512730755  100.00%

