--------
Total Statistics
--------
Total Instructions: 17760362358
Total Cycles: 80160913180
IPC: 0.221559

--------
Single level Tlb hierarchy
--------
  Data Tlb:
    Entries:          64
    Page Size(B):   4096
    Associativity:      4

Latencies:    0  100
Tlb-Sets:   16 - LRU - assoc:   4

Tlb Stats:
Tlb-Load-Hits:        2975234731   98.89%
Tlb-Load-Misses:        33388419    1.11%
Tlb-Load-Accesses:    3008623150  100.00%

Tlb-Store-Hits:          85538800   99.80%
Tlb-Store-Misses:          167967    0.20%
Tlb-Store-Accesses:      85706767  100.00%

Tlb-Total-Hits:        3060773531   98.92%
Tlb-Total-Misses:        33556386    1.08%
Tlb-Total-Accesses:    3094329917  100.00%



--------
Two level Cache hierarchy
--------
  L1-Data Cache:
    Size(KB):          64
    Block Size(B):     32
    Associativity:      8

  L2-Data Cache:
    Size(KB):        1024
    Block Size(B):    128
    Associativity:      8

Latencies:    1   15  250
L1-Sets:  256 - LRU - assoc:   8
L2-Sets: 1024 - LRU - assoc:   8
Store_allocation: Yes
L2_inclusive: Yes
L2_prefetching: No

L1 Cache Stats:
L1-Load-Hits:        2277688030   75.71%
L1-Load-Misses:       730935120   24.29%
L1-Load-Accesses:    3008623150  100.00%

L1-Store-Hits:          79904350   93.23%
L1-Store-Misses:         5802417    6.77%
L1-Store-Accesses:      85706767  100.00%

L1-Total-Hits:        2357592380   76.19%
L1-Total-Misses:       736737537   23.81%
L1-Total-Accesses:    3094329917  100.00%

L2 Cache Stats:
L2-Load-Hits:         551816051   75.49%
L2-Load-Misses:       179119069   24.51%
L2-Load-Accesses:     730935120  100.00%

L2-Store-Hits:           5323409   91.74%
L2-Store-Misses:          479008    8.26%
L2-Store-Accesses:       5802417  100.00%

L2-Total-Hits:         557139460   75.62%
L2-Total-Misses:       179598077   24.38%
L2-Total-Accesses:     736737537  100.00%

