--------
Total Statistics
--------
Total Instructions: 22367335655
Total Cycles: 30891609205
IPC: 0.724059

--------
Single level Tlb hierarchy
--------
  Data Tlb:
    Entries:          64
    Page Size(B):   4096
    Associativity:      4

Latencies:    0  100
Tlb-Sets:   16 - LRU - assoc:   4

Tlb Stats:
Tlb-Load-Hits:        6680995296  100.00%
Tlb-Load-Misses:              62    0.00%
Tlb-Load-Accesses:    6680995358  100.00%

Tlb-Store-Hits:        1839857425  100.00%
Tlb-Store-Misses:             342    0.00%
Tlb-Store-Accesses:    1839857767  100.00%

Tlb-Total-Hits:        8520852721  100.00%
Tlb-Total-Misses:             404    0.00%
Tlb-Total-Accesses:    8520853125  100.00%



--------
Two level Cache hierarchy
--------
  L1-Data Cache:
    Size(KB):          64
    Block Size(B):     64
    Associativity:      4

  L2-Data Cache:
    Size(KB):        1024
    Block Size(B):    128
    Associativity:      8

Latencies:    1   15  250
L1-Sets:  256 - LRU - assoc:   4
L2-Sets: 1024 - LRU - assoc:   8
Store_allocation: Yes
L2_inclusive: Yes
L2_prefetching: No

L1 Cache Stats:
L1-Load-Hits:        6680984594  100.00%
L1-Load-Misses:           10764    0.00%
L1-Load-Accesses:    6680995358  100.00%

L1-Store-Hits:        1839831596  100.00%
L1-Store-Misses:           26171    0.00%
L1-Store-Accesses:    1839857767  100.00%

L1-Total-Hits:        8520816190  100.00%
L1-Total-Misses:           36935    0.00%
L1-Total-Accesses:    8520853125  100.00%

L2 Cache Stats:
L2-Load-Hits:              9680   89.93%
L2-Load-Misses:            1084   10.07%
L2-Load-Accesses:         10764  100.00%

L2-Store-Hits:             15951   60.95%
L2-Store-Misses:           10220   39.05%
L2-Store-Accesses:         26171  100.00%

L2-Total-Hits:             25631   69.39%
L2-Total-Misses:           11304   30.61%
L2-Total-Accesses:         36935  100.00%

