                     Power     Energy    Energy %
  core-core       13141.48 W     0.35  J     98.59%
  core-ifetch     148.60 W     3.99 mJ      1.11%
  core-alu          0.60 W     0.02 mJ      0.00%
  core-int          7.13 W     0.19 mJ      0.05%
  core-fp           1.58 W     0.04 mJ      0.01%
  core-mem          4.42 W     0.12 mJ      0.03%
  core-other        3.18 W     0.09 mJ      0.02%
  icache            5.81 W     0.16 mJ      0.04%
  dcache            8.31 W     0.22 mJ      0.06%
  l2                1.08 W     0.03 mJ      0.01%
  l3                3.37 W     0.09 mJ      0.03%
  nuca              0.00 W     0.00  J      0.00%
  noc               0.15 W     4.03 uJ      0.00%
  dram              4.34 W     0.12 mJ      0.03%

  core            13306.99 W     0.36  J     99.83%
  cache            18.57 W     0.50 mJ      0.14%
  total           13330.05 W     0.36  J    100.00%
