                     Power     Energy    Energy %
  core-core       42775.57 W   442.14  J     98.39%
  core-ifetch     563.17 W     5.82  J      1.30%
  core-alu          2.35 W     0.02  J      0.01%
  core-int         27.20 W     0.28  J      0.06%
  core-fp           6.01 W     0.06  J      0.01%
  core-mem         15.72 W     0.16  J      0.04%
  core-other       11.26 W     0.12  J      0.03%
  icache           35.45 W     0.37  J      0.08%
  dcache           26.78 W     0.28  J      0.06%
  l2                1.93 W     0.02  J      0.00%
  l3                3.38 W     0.03  J      0.01%
  nuca              0.00 W     0.00  J      0.00%
  noc               0.30 W     3.08 mJ      0.00%
  dram              4.25 W     0.04  J      0.01%

  core            43401.28 W   448.61  J     99.83%
  cache            67.54 W     0.70  J      0.16%
  total           43473.37 W   449.35  J    100.00%
