                     Power     Energy    Energy %
  core-core       6836.52 W    17.17  J     98.26%
  core-ifetch      88.01 W     0.22  J      1.26%
  core-alu          0.60 W     1.52 mJ      0.01%
  core-int          6.47 W     0.02  J      0.09%
  core-fp           1.55 W     3.90 mJ      0.02%
  core-mem          2.68 W     6.73 mJ      0.04%
  core-other        3.14 W     7.89 mJ      0.05%
  icache            5.09 W     0.01  J      0.07%
  dcache            4.61 W     0.01  J      0.07%
  l2                0.96 W     2.42 mJ      0.01%
  l3                3.37 W     8.47 mJ      0.05%
  nuca              0.00 W     0.00  J      0.00%
  noc               0.15 W     0.38 mJ      0.00%
  dram              4.25 W     0.01  J      0.06%

  core            6938.98 W    17.42  J     99.73%
  cache            14.04 W     0.04  J      0.20%
  total           6957.43 W    17.47  J    100.00%
