--------
Total Statistics
--------
Total Instructions: 10887615013
Total Cycles: 17239481913
IPC: 0.631551

--------
Single level Tlb hierarchy
--------
  Data Tlb:
    Entries:          64
    Page Size(B):   4096
    Associativity:      4

Latencies:    0  100
Tlb-Sets:   16 - LRU - assoc:   4

Tlb Stats:
Tlb-Load-Hits:        2283254023   99.40%
Tlb-Load-Misses:        13765427    0.60%
Tlb-Load-Accesses:    2297019450  100.00%

Tlb-Store-Hits:         591928979   99.95%
Tlb-Store-Misses:          276841    0.05%
Tlb-Store-Accesses:     592205820  100.00%

Tlb-Total-Hits:        2875183002   99.51%
Tlb-Total-Misses:        14042268    0.49%
Tlb-Total-Accesses:    2889225270  100.00%



--------
Two level Cache hierarchy
--------
  L1-Data Cache:
    Size(KB):          32
    Block Size(B):     64
    Associativity:      8

  L2-Data Cache:
    Size(KB):        1024
    Block Size(B):    128
    Associativity:      8

Latencies:    1   15  250
L1-Sets:   64 - LRU - assoc:   8
L2-Sets: 1024 - LRU - assoc:   8
Store_allocation: Yes
L2_inclusive: Yes
L2_prefetching: Yes ( 64)

L1 Cache Stats:
L1-Load-Hits:        2184488601   95.10%
L1-Load-Misses:       112530849    4.90%
L1-Load-Accesses:    2297019450  100.00%

L1-Store-Hits:         585555397   98.88%
L1-Store-Misses:         6650423    1.12%
L1-Store-Accesses:     592205820  100.00%

L1-Total-Hits:        2770043998   95.87%
L1-Total-Misses:       119181272    4.13%
L1-Total-Accesses:    2889225270  100.00%

L2 Cache Stats:
L2-Load-Hits:         111948649   99.48%
L2-Load-Misses:          582200    0.52%
L2-Load-Accesses:     112530849  100.00%

L2-Store-Hits:           6149840   92.47%
L2-Store-Misses:          500583    7.53%
L2-Store-Accesses:       6650423  100.00%

L2-Total-Hits:         118098489   99.09%
L2-Total-Misses:         1082783    0.91%
L2-Total-Accesses:     119181272  100.00%

