--------
Total Statistics
--------
Total Instructions: 17760362358
Total Cycles: 76805150650
IPC: 0.231239

--------
Single level Tlb hierarchy
--------
  Data Tlb:
    Entries:          64
    Page Size(B):   4096
    Associativity:      4

Latencies:    0  100
Tlb-Sets:   16 - LRU - assoc:   4

Tlb Stats:
Tlb-Load-Hits:        2975243115   98.89%
Tlb-Load-Misses:        33380035    1.11%
Tlb-Load-Accesses:    3008623150  100.00%

Tlb-Store-Hits:          85560307   99.83%
Tlb-Store-Misses:          146460    0.17%
Tlb-Store-Accesses:      85706767  100.00%

Tlb-Total-Hits:        3060803422   98.92%
Tlb-Total-Misses:        33526495    1.08%
Tlb-Total-Accesses:    3094329917  100.00%



--------
Two level Cache hierarchy
--------
  L1-Data Cache:
    Size(KB):          32
    Block Size(B):     64
    Associativity:      8

  L2-Data Cache:
    Size(KB):        1024
    Block Size(B):    128
    Associativity:      8

Latencies:    1   15  250
L1-Sets:   64 - LRU - assoc:   8
L2-Sets: 1024 - LRU - assoc:   8
Store_allocation: Yes
L2_inclusive: Yes
L2_prefetching: Yes (  2)

L1 Cache Stats:
L1-Load-Hits:        2497912752   83.03%
L1-Load-Misses:       510710398   16.97%
L1-Load-Accesses:    3008623150  100.00%

L1-Store-Hits:          83703940   97.66%
L1-Store-Misses:         2002827    2.34%
L1-Store-Accesses:      85706767  100.00%

L1-Total-Hits:        2581616692   83.43%
L1-Total-Misses:       512713225   16.57%
L1-Total-Accesses:    3094329917  100.00%

L2 Cache Stats:
L2-Load-Hits:         331561087   64.92%
L2-Load-Misses:       179149311   35.08%
L2-Load-Accesses:     510710398  100.00%

L2-Store-Hits:           1523696   76.08%
L2-Store-Misses:          479131   23.92%
L2-Store-Accesses:       2002827  100.00%

L2-Total-Hits:         333084783   64.97%
L2-Total-Misses:       179628442   35.03%
L2-Total-Accesses:     512713225  100.00%

