--------
Total Statistics
--------
Total Instructions: 17760362383
Total Cycles: 76794190533
IPC: 0.231272

--------
Single level Tlb hierarchy
--------
  Data Tlb:
    Entries:          64
    Page Size(B):   4096
    Associativity:      4

Latencies:    0  100
Tlb-Sets:   16 - LRU - assoc:   4

Tlb Stats:
Tlb-Load-Hits:        2975289920   98.89%
Tlb-Load-Misses:        33333238    1.11%
Tlb-Load-Accesses:    3008623158  100.00%

Tlb-Store-Hits:          85561419   99.83%
Tlb-Store-Misses:          145348    0.17%
Tlb-Store-Accesses:      85706767  100.00%

Tlb-Total-Hits:        3060851339   98.92%
Tlb-Total-Misses:        33478586    1.08%
Tlb-Total-Accesses:    3094329925  100.00%



--------
Two level Cache hierarchy
--------
  L1-Data Cache:
    Size(KB):          32
    Block Size(B):     64
    Associativity:      8

  L2-Data Cache:
    Size(KB):        1024
    Block Size(B):    128
    Associativity:      8

Latencies:    1   15  250
L1-Sets:   64 - LRU - assoc:   8
L2-Sets: 1024 - LRU - assoc:   8
Store_allocation: Yes
L2_inclusive: Yes
L2_prefetching: Yes ( 16)

L1 Cache Stats:
L1-Load-Hits:        2497943498   83.03%
L1-Load-Misses:       510679660   16.97%
L1-Load-Accesses:    3008623158  100.00%

L1-Store-Hits:          83711202   97.67%
L1-Store-Misses:         1995565    2.33%
L1-Store-Accesses:      85706767  100.00%

L1-Total-Hits:        2581654700   83.43%
L1-Total-Misses:       512675225   16.57%
L1-Total-Accesses:    3094329925  100.00%

L2 Cache Stats:
L2-Load-Hits:         331543766   64.92%
L2-Load-Misses:       179135894   35.08%
L2-Load-Accesses:     510679660  100.00%

L2-Store-Hits:           1525414   76.44%
L2-Store-Misses:          470151   23.56%
L2-Store-Accesses:       1995565  100.00%

L2-Total-Hits:         333069180   64.97%
L2-Total-Misses:       179606045   35.03%
L2-Total-Accesses:     512675225  100.00%

