--------
Total Statistics
--------
Total Instructions: 17760362383
Total Cycles: 76902240538
IPC: 0.230947

--------
Single level Tlb hierarchy
--------
  Data Tlb:
    Entries:          64
    Page Size(B):   4096
    Associativity:      4

Latencies:    0  100
Tlb-Sets:   16 - LRU - assoc:   4

Tlb Stats:
Tlb-Load-Hits:        2975244934   98.89%
Tlb-Load-Misses:        33378224    1.11%
Tlb-Load-Accesses:    3008623158  100.00%

Tlb-Store-Hits:          85540744   99.81%
Tlb-Store-Misses:          166023    0.19%
Tlb-Store-Accesses:      85706767  100.00%

Tlb-Total-Hits:        3060785678   98.92%
Tlb-Total-Misses:        33544247    1.08%
Tlb-Total-Accesses:    3094329925  100.00%



--------
Two level Cache hierarchy
--------
  L1-Data Cache:
    Size(KB):          32
    Block Size(B):     64
    Associativity:      8

  L2-Data Cache:
    Size(KB):        1024
    Block Size(B):    128
    Associativity:      8

Latencies:    1   15  250
L1-Sets:   64 - LRU - assoc:   8
L2-Sets: 1024 - LRU - assoc:   8
Store_allocation: Yes
L2_inclusive: Yes
L2_prefetching: Yes (  1)

L1 Cache Stats:
L1-Load-Hits:        2490744261   82.79%
L1-Load-Misses:       517878897   17.21%
L1-Load-Accesses:    3008623158  100.00%

L1-Store-Hits:          83710762   97.67%
L1-Store-Misses:         1996005    2.33%
L1-Store-Accesses:      85706767  100.00%

L1-Total-Hits:        2574455023   83.20%
L1-Total-Misses:       519874902   16.80%
L1-Total-Accesses:    3094329925  100.00%

L2 Cache Stats:
L2-Load-Hits:         338766159   65.41%
L2-Load-Misses:       179112738   34.59%
L2-Load-Accesses:     517878897  100.00%

L2-Store-Hits:           1528743   76.59%
L2-Store-Misses:          467262   23.41%
L2-Store-Accesses:       1996005  100.00%

L2-Total-Hits:         340294902   65.46%
L2-Total-Misses:       179580000   34.54%
L2-Total-Accesses:     519874902  100.00%

