--------
Total Statistics
--------
Total Instructions: 22367335630
Total Cycles: 31456810357
IPC: 0.711049

--------
Single level Tlb hierarchy
--------
  Data Tlb:
    Entries:          64
    Page Size(B):   4096
    Associativity:      4

Latencies:    0  100
Tlb-Sets:   16 - LRU - assoc:   4

Tlb Stats:
Tlb-Load-Hits:        6680995293  100.00%
Tlb-Load-Misses:              57    0.00%
Tlb-Load-Accesses:    6680995350  100.00%

Tlb-Store-Hits:        1839857425  100.00%
Tlb-Store-Misses:             342    0.00%
Tlb-Store-Accesses:    1839857767  100.00%

Tlb-Total-Hits:        8520852718  100.00%
Tlb-Total-Misses:             399    0.00%
Tlb-Total-Accesses:    8520853117  100.00%



--------
Two level Cache hierarchy
--------
  L1-Data Cache:
    Size(KB):          32
    Block Size(B):     64
    Associativity:      8

  L2-Data Cache:
    Size(KB):        1024
    Block Size(B):    128
    Associativity:      8

Latencies:    1   15  250
L1-Sets:   64 - LRU - assoc:   8
L2-Sets: 1024 - LRU - assoc:   8
Store_allocation: Yes
L2_inclusive: Yes
L2_prefetching: Yes ( 16)

L1 Cache Stats:
L1-Load-Hits:        6668799465   99.82%
L1-Load-Misses:        12195885    0.18%
L1-Load-Accesses:    6680995350  100.00%

L1-Store-Hits:        1814336288   98.61%
L1-Store-Misses:        25521479    1.39%
L1-Store-Accesses:    1839857767  100.00%

L1-Total-Hits:        8483135753   99.56%
L1-Total-Misses:        37717364    0.44%
L1-Total-Accesses:    8520853117  100.00%

L2 Cache Stats:
L2-Load-Hits:          12194819   99.99%
L2-Load-Misses:            1066    0.01%
L2-Load-Accesses:      12195885  100.00%

L2-Store-Hits:          25511260   99.96%
L2-Store-Misses:           10219    0.04%
L2-Store-Accesses:      25521479  100.00%

L2-Total-Hits:          37706079   99.97%
L2-Total-Misses:           11285    0.03%
L2-Total-Accesses:      37717364  100.00%

